<?xml version="1.0" encoding="utf-8"?>
<!DOCTYPE eagle SYSTEM "eagle.dtd">
<eagle version="8.1.1">
<drawing>
<settings>
<setting alwaysvectorfont="no"/>
<setting verticaltext="up"/>
</settings>
<grid distance="0.1" unitdist="inch" unit="inch" style="lines" multiple="1" display="no" altdistance="0.01" altunitdist="inch" altunit="inch"/>
<layers>
<layer number="1" name="Top" color="4" fill="1" visible="no" active="no"/>
<layer number="16" name="Bottom" color="1" fill="1" visible="no" active="no"/>
<layer number="17" name="Pads" color="2" fill="1" visible="no" active="no"/>
<layer number="18" name="Vias" color="2" fill="1" visible="no" active="no"/>
<layer number="19" name="Unrouted" color="6" fill="1" visible="no" active="no"/>
<layer number="20" name="Dimension" color="15" fill="1" visible="no" active="no"/>
<layer number="21" name="tPlace" color="7" fill="1" visible="no" active="no"/>
<layer number="22" name="bPlace" color="7" fill="1" visible="no" active="no"/>
<layer number="23" name="tOrigins" color="15" fill="1" visible="no" active="no"/>
<layer number="24" name="bOrigins" color="15" fill="1" visible="no" active="no"/>
<layer number="25" name="tNames" color="7" fill="1" visible="no" active="no"/>
<layer number="26" name="bNames" color="7" fill="1" visible="no" active="no"/>
<layer number="27" name="tValues" color="7" fill="1" visible="no" active="no"/>
<layer number="28" name="bValues" color="7" fill="1" visible="no" active="no"/>
<layer number="29" name="tStop" color="7" fill="3" visible="no" active="no"/>
<layer number="30" name="bStop" color="7" fill="6" visible="no" active="no"/>
<layer number="31" name="tCream" color="7" fill="4" visible="no" active="no"/>
<layer number="32" name="bCream" color="7" fill="5" visible="no" active="no"/>
<layer number="33" name="tFinish" color="6" fill="3" visible="no" active="no"/>
<layer number="34" name="bFinish" color="6" fill="6" visible="no" active="no"/>
<layer number="35" name="tGlue" color="7" fill="4" visible="no" active="no"/>
<layer number="36" name="bGlue" color="7" fill="5" visible="no" active="no"/>
<layer number="37" name="tTest" color="7" fill="1" visible="no" active="no"/>
<layer number="38" name="bTest" color="7" fill="1" visible="no" active="no"/>
<layer number="39" name="tKeepout" color="4" fill="11" visible="no" active="no"/>
<layer number="40" name="bKeepout" color="1" fill="11" visible="no" active="no"/>
<layer number="41" name="tRestrict" color="4" fill="10" visible="no" active="no"/>
<layer number="42" name="bRestrict" color="1" fill="10" visible="no" active="no"/>
<layer number="43" name="vRestrict" color="2" fill="10" visible="no" active="no"/>
<layer number="44" name="Drills" color="7" fill="1" visible="no" active="no"/>
<layer number="45" name="Holes" color="7" fill="1" visible="no" active="no"/>
<layer number="46" name="Milling" color="3" fill="1" visible="no" active="no"/>
<layer number="47" name="Measures" color="7" fill="1" visible="no" active="no"/>
<layer number="48" name="Document" color="7" fill="1" visible="no" active="no"/>
<layer number="49" name="Reference" color="7" fill="1" visible="no" active="no"/>
<layer number="50" name="dxf" color="7" fill="1" visible="no" active="no"/>
<layer number="51" name="tDocu" color="7" fill="1" visible="no" active="no"/>
<layer number="52" name="bDocu" color="7" fill="1" visible="no" active="no"/>
<layer number="53" name="tGND_GNDA" color="7" fill="9" visible="no" active="no"/>
<layer number="54" name="bGND_GNDA" color="1" fill="9" visible="no" active="no"/>
<layer number="56" name="wert" color="7" fill="1" visible="no" active="no"/>
<layer number="57" name="tCAD" color="7" fill="1" visible="no" active="no"/>
<layer number="59" name="tCarbon" color="7" fill="1" visible="no" active="no"/>
<layer number="60" name="bCarbon" color="7" fill="1" visible="no" active="no"/>
<layer number="90" name="Modules" color="7" fill="1" visible="no" active="yes"/>
<layer number="91" name="Nets" color="2" fill="1" visible="yes" active="yes"/>
<layer number="92" name="Busses" color="1" fill="1" visible="yes" active="yes"/>
<layer number="93" name="Pins" color="2" fill="1" visible="no" active="yes"/>
<layer number="94" name="Symbols" color="4" fill="1" visible="yes" active="yes"/>
<layer number="95" name="Names" color="7" fill="1" visible="yes" active="yes"/>
<layer number="96" name="Values" color="7" fill="1" visible="yes" active="yes"/>
<layer number="97" name="Info" color="7" fill="1" visible="yes" active="yes"/>
<layer number="98" name="Guide" color="6" fill="1" visible="yes" active="yes"/>
<layer number="99" name="SpiceOrder" color="7" fill="1" visible="no" active="no"/>
<layer number="100" name="Muster" color="7" fill="1" visible="no" active="no"/>
<layer number="101" name="Patch_Top" color="12" fill="4" visible="no" active="yes"/>
<layer number="102" name="Vscore" color="7" fill="1" visible="no" active="yes"/>
<layer number="103" name="fp3" color="7" fill="1" visible="no" active="yes"/>
<layer number="104" name="Name" color="7" fill="1" visible="no" active="yes"/>
<layer number="105" name="Beschreib" color="9" fill="1" visible="no" active="yes"/>
<layer number="106" name="BGA-Top" color="4" fill="1" visible="no" active="yes"/>
<layer number="107" name="BD-Top" color="5" fill="1" visible="no" active="yes"/>
<layer number="108" name="fp8" color="7" fill="1" visible="no" active="yes"/>
<layer number="109" name="fp9" color="7" fill="1" visible="no" active="yes"/>
<layer number="110" name="fp0" color="7" fill="1" visible="no" active="yes"/>
<layer number="111" name="LPC17xx" color="7" fill="1" visible="no" active="yes"/>
<layer number="112" name="tSilk" color="7" fill="1" visible="no" active="yes"/>
<layer number="113" name="ReferenceLS" color="7" fill="1" visible="no" active="no"/>
<layer number="116" name="Patch_BOT" color="9" fill="4" visible="no" active="yes"/>
<layer number="118" name="Rect_Pads" color="7" fill="1" visible="no" active="no"/>
<layer number="121" name="_tsilk" color="7" fill="1" visible="no" active="yes"/>
<layer number="122" name="_bsilk" color="7" fill="1" visible="no" active="yes"/>
<layer number="123" name="tTestmark" color="7" fill="1" visible="no" active="yes"/>
<layer number="124" name="bTestmark" color="7" fill="1" visible="no" active="yes"/>
<layer number="125" name="_tNames" color="7" fill="1" visible="no" active="yes"/>
<layer number="126" name="_bNames" color="7" fill="1" visible="no" active="yes"/>
<layer number="127" name="_tValues" color="7" fill="1" visible="no" active="yes"/>
<layer number="128" name="_bValues" color="7" fill="1" visible="no" active="yes"/>
<layer number="129" name="Mask" color="7" fill="1" visible="yes" active="yes"/>
<layer number="131" name="tAdjust" color="7" fill="1" visible="no" active="yes"/>
<layer number="132" name="bAdjust" color="7" fill="1" visible="no" active="yes"/>
<layer number="144" name="Drill_legend" color="7" fill="1" visible="no" active="yes"/>
<layer number="150" name="Notes" color="7" fill="1" visible="no" active="yes"/>
<layer number="151" name="HeatSink" color="7" fill="1" visible="no" active="yes"/>
<layer number="152" name="_bDocu" color="7" fill="1" visible="no" active="yes"/>
<layer number="153" name="FabDoc1" color="6" fill="1" visible="no" active="no"/>
<layer number="154" name="FabDoc2" color="2" fill="1" visible="no" active="no"/>
<layer number="155" name="FabDoc3" color="7" fill="15" visible="no" active="no"/>
<layer number="199" name="Contour" color="7" fill="1" visible="no" active="yes"/>
<layer number="200" name="200bmp" color="1" fill="10" visible="no" active="yes"/>
<layer number="201" name="201bmp" color="2" fill="1" visible="no" active="no"/>
<layer number="202" name="202bmp" color="3" fill="1" visible="no" active="no"/>
<layer number="203" name="203bmp" color="4" fill="10" visible="no" active="yes"/>
<layer number="204" name="204bmp" color="5" fill="10" visible="no" active="yes"/>
<layer number="205" name="205bmp" color="6" fill="10" visible="no" active="yes"/>
<layer number="206" name="206bmp" color="7" fill="10" visible="no" active="yes"/>
<layer number="207" name="207bmp" color="8" fill="10" visible="no" active="yes"/>
<layer number="208" name="208bmp" color="9" fill="10" visible="no" active="yes"/>
<layer number="209" name="209bmp" color="7" fill="1" visible="no" active="yes"/>
<layer number="210" name="210bmp" color="7" fill="1" visible="no" active="yes"/>
<layer number="211" name="211bmp" color="7" fill="1" visible="no" active="yes"/>
<layer number="212" name="212bmp" color="7" fill="1" visible="no" active="yes"/>
<layer number="213" name="213bmp" color="7" fill="1" visible="no" active="yes"/>
<layer number="214" name="214bmp" color="7" fill="1" visible="no" active="yes"/>
<layer number="215" name="215bmp" color="7" fill="1" visible="no" active="yes"/>
<layer number="216" name="216bmp" color="7" fill="1" visible="no" active="yes"/>
<layer number="217" name="217bmp" color="18" fill="1" visible="no" active="no"/>
<layer number="218" name="218bmp" color="19" fill="1" visible="no" active="no"/>
<layer number="219" name="219bmp" color="20" fill="1" visible="no" active="no"/>
<layer number="220" name="220bmp" color="21" fill="1" visible="no" active="no"/>
<layer number="221" name="221bmp" color="22" fill="1" visible="no" active="no"/>
<layer number="222" name="222bmp" color="23" fill="1" visible="no" active="no"/>
<layer number="223" name="223bmp" color="24" fill="1" visible="no" active="no"/>
<layer number="224" name="224bmp" color="25" fill="1" visible="no" active="no"/>
<layer number="225" name="225bmp" color="7" fill="1" visible="yes" active="yes"/>
<layer number="226" name="226bmp" color="7" fill="1" visible="yes" active="yes"/>
<layer number="227" name="227bmp" color="7" fill="1" visible="yes" active="yes"/>
<layer number="228" name="228bmp" color="7" fill="1" visible="yes" active="yes"/>
<layer number="229" name="229bmp" color="7" fill="1" visible="yes" active="yes"/>
<layer number="230" name="230bmp" color="7" fill="1" visible="yes" active="yes"/>
<layer number="231" name="Eagle3D_PG1" color="7" fill="1" visible="no" active="no"/>
<layer number="232" name="Eagle3D_PG2" color="7" fill="1" visible="no" active="no"/>
<layer number="233" name="Eagle3D_PG3" color="7" fill="1" visible="no" active="no"/>
<layer number="248" name="Housing" color="7" fill="1" visible="no" active="yes"/>
<layer number="249" name="Edge" color="7" fill="1" visible="no" active="yes"/>
<layer number="250" name="Descript" color="7" fill="1" visible="no" active="no"/>
<layer number="251" name="SMDround" color="7" fill="1" visible="no" active="no"/>
<layer number="254" name="cooling" color="7" fill="1" visible="no" active="yes"/>
<layer number="255" name="routoute" color="7" fill="1" visible="yes" active="yes"/>
</layers>
<schematic xreflabel="%F%N/%S.%C%R" xrefpart="/%S.%C%R">
<libraries>
<library name="con-ml">
<description>&lt;b&gt;Harting  Connectors&lt;/b&gt;&lt;p&gt;
Low profile connectors, straight&lt;p&gt;
&lt;author&gt;Created by librarian@cadsoft.de&lt;/author&gt;</description>
<packages>
<package name="ML14">
<description>&lt;b&gt;HARTING&lt;/b&gt;</description>
<wire x1="-11.43" y1="3.175" x2="11.43" y2="3.175" width="0.127" layer="21"/>
<wire x1="11.43" y1="-3.175" x2="11.43" y2="3.175" width="0.127" layer="21"/>
<wire x1="-11.43" y1="3.175" x2="-11.43" y2="-3.175" width="0.127" layer="21"/>
<wire x1="-12.7" y1="4.445" x2="-11.43" y2="4.445" width="0.127" layer="21"/>
<wire x1="12.7" y1="-4.445" x2="8.001" y2="-4.445" width="0.127" layer="21"/>
<wire x1="12.7" y1="-4.445" x2="12.7" y2="4.445" width="0.127" layer="21"/>
<wire x1="-12.7" y1="4.445" x2="-12.7" y2="-4.445" width="0.127" layer="21"/>
<wire x1="11.43" y1="-3.175" x2="7.112" y2="-3.175" width="0.127" layer="21"/>
<wire x1="2.032" y1="-2.413" x2="-2.032" y2="-2.413" width="0.127" layer="21"/>
<wire x1="-2.032" y1="-3.175" x2="-2.032" y2="-2.413" width="0.127" layer="21"/>
<wire x1="-2.032" y1="-3.175" x2="-11.43" y2="-3.175" width="0.127" layer="21"/>
<wire x1="-2.032" y1="-3.175" x2="-2.032" y2="-3.429" width="0.127" layer="21"/>
<wire x1="2.032" y1="-2.413" x2="2.032" y2="-3.175" width="0.127" layer="21"/>
<wire x1="2.032" y1="-3.175" x2="2.032" y2="-3.429" width="0.127" layer="21"/>
<wire x1="11.43" y1="4.445" x2="11.43" y2="4.699" width="0.127" layer="21"/>
<wire x1="11.43" y1="4.699" x2="10.16" y2="4.699" width="0.127" layer="21"/>
<wire x1="10.16" y1="4.445" x2="10.16" y2="4.699" width="0.127" layer="21"/>
<wire x1="11.43" y1="4.445" x2="12.7" y2="4.445" width="0.127" layer="21"/>
<wire x1="0.635" y1="4.699" x2="-0.635" y2="4.699" width="0.127" layer="21"/>
<wire x1="0.635" y1="4.699" x2="0.635" y2="4.445" width="0.127" layer="21"/>
<wire x1="0.635" y1="4.445" x2="10.16" y2="4.445" width="0.127" layer="21"/>
<wire x1="-0.635" y1="4.699" x2="-0.635" y2="4.445" width="0.127" layer="21"/>
<wire x1="-10.16" y1="4.699" x2="-11.43" y2="4.699" width="0.127" layer="21"/>
<wire x1="-11.43" y1="4.699" x2="-11.43" y2="4.445" width="0.127" layer="21"/>
<wire x1="-10.16" y1="4.699" x2="-10.16" y2="4.445" width="0.127" layer="21"/>
<wire x1="-10.16" y1="4.445" x2="-0.635" y2="4.445" width="0.127" layer="21"/>
<wire x1="4.699" y1="-4.445" x2="2.032" y2="-4.445" width="0.127" layer="21"/>
<wire x1="2.032" y1="-4.445" x2="-2.032" y2="-4.445" width="0.127" layer="21"/>
<wire x1="5.588" y1="-3.175" x2="5.588" y2="-3.429" width="0.127" layer="21"/>
<wire x1="5.588" y1="-3.175" x2="2.032" y2="-3.175" width="0.127" layer="21"/>
<wire x1="7.112" y1="-3.175" x2="7.112" y2="-3.429" width="0.127" layer="21"/>
<wire x1="7.112" y1="-3.175" x2="5.588" y2="-3.175" width="0.127" layer="21"/>
<wire x1="4.699" y1="-4.445" x2="5.08" y2="-3.937" width="0.127" layer="21"/>
<wire x1="7.62" y1="-3.937" x2="8.001" y2="-4.445" width="0.127" layer="21"/>
<wire x1="7.62" y1="-3.937" x2="7.112" y2="-3.937" width="0.127" layer="21"/>
<wire x1="5.588" y1="-3.429" x2="2.032" y2="-3.429" width="0.0508" layer="21"/>
<wire x1="2.032" y1="-3.429" x2="2.032" y2="-4.445" width="0.127" layer="21"/>
<wire x1="7.112" y1="-3.429" x2="11.684" y2="-3.429" width="0.0508" layer="21"/>
<wire x1="11.684" y1="-3.429" x2="11.684" y2="3.429" width="0.0508" layer="21"/>
<wire x1="11.684" y1="3.429" x2="-11.684" y2="3.429" width="0.0508" layer="21"/>
<wire x1="-11.684" y1="3.429" x2="-11.684" y2="-3.429" width="0.0508" layer="21"/>
<wire x1="-11.684" y1="-3.429" x2="-2.032" y2="-3.429" width="0.0508" layer="21"/>
<wire x1="-2.032" y1="-3.429" x2="-2.032" y2="-4.445" width="0.127" layer="21"/>
<wire x1="5.588" y1="-3.429" x2="5.588" y2="-3.937" width="0.127" layer="21"/>
<wire x1="5.588" y1="-3.937" x2="5.08" y2="-3.937" width="0.127" layer="21"/>
<wire x1="7.112" y1="-3.429" x2="7.112" y2="-3.937" width="0.127" layer="21"/>
<wire x1="7.112" y1="-3.937" x2="5.588" y2="-3.937" width="0.127" layer="21"/>
<wire x1="-2.032" y1="-4.445" x2="-6.858" y2="-4.445" width="0.127" layer="21"/>
<wire x1="-6.858" y1="-4.318" x2="-6.858" y2="-4.445" width="0.127" layer="21"/>
<wire x1="-6.858" y1="-4.318" x2="-8.382" y2="-4.318" width="0.127" layer="21"/>
<wire x1="-8.382" y1="-4.445" x2="-8.382" y2="-4.318" width="0.127" layer="21"/>
<wire x1="-8.382" y1="-4.445" x2="-12.7" y2="-4.445" width="0.127" layer="21"/>
<pad name="1" x="-7.62" y="-1.27" drill="0.9144" shape="octagon"/>
<pad name="2" x="-7.62" y="1.27" drill="0.9144" shape="octagon"/>
<pad name="3" x="-5.08" y="-1.27" drill="0.9144" shape="octagon"/>
<pad name="4" x="-5.08" y="1.27" drill="0.9144" shape="octagon"/>
<pad name="5" x="-2.54" y="-1.27" drill="0.9144" shape="octagon"/>
<pad name="6" x="-2.54" y="1.27" drill="0.9144" shape="octagon"/>
<pad name="7" x="0" y="-1.27" drill="0.9144" shape="octagon"/>
<pad name="8" x="0" y="1.27" drill="0.9144" shape="octagon"/>
<pad name="9" x="2.54" y="-1.27" drill="0.9144" shape="octagon"/>
<pad name="10" x="2.54" y="1.27" drill="0.9144" shape="octagon"/>
<pad name="11" x="5.08" y="-1.27" drill="0.9144" shape="octagon"/>
<pad name="12" x="5.08" y="1.27" drill="0.9144" shape="octagon"/>
<pad name="13" x="7.62" y="-1.27" drill="0.9144" shape="octagon"/>
<pad name="14" x="7.62" y="1.27" drill="0.9144" shape="octagon"/>
<text x="-12.7" y="5.08" size="1.778" layer="25" ratio="10">&gt;NAME</text>
<text x="0" y="5.08" size="1.778" layer="27" ratio="10">&gt;VALUE</text>
<text x="-1.016" y="-4.064" size="1.27" layer="21" ratio="10">14</text>
<text x="-10.16" y="-1.905" size="1.27" layer="21" ratio="10">1</text>
<text x="-10.16" y="0.635" size="1.27" layer="21" ratio="10">2</text>
<rectangle x1="7.366" y1="1.016" x2="7.874" y2="1.524" layer="51"/>
<rectangle x1="4.826" y1="1.016" x2="5.334" y2="1.524" layer="51"/>
<rectangle x1="4.826" y1="-1.524" x2="5.334" y2="-1.016" layer="51"/>
<rectangle x1="7.366" y1="-1.524" x2="7.874" y2="-1.016" layer="51"/>
<rectangle x1="-5.334" y1="1.016" x2="-4.826" y2="1.524" layer="51"/>
<rectangle x1="-7.874" y1="1.016" x2="-7.366" y2="1.524" layer="51"/>
<rectangle x1="-2.794" y1="1.016" x2="-2.286" y2="1.524" layer="51"/>
<rectangle x1="2.286" y1="1.016" x2="2.794" y2="1.524" layer="51"/>
<rectangle x1="-0.254" y1="1.016" x2="0.254" y2="1.524" layer="51"/>
<rectangle x1="-5.334" y1="-1.524" x2="-4.826" y2="-1.016" layer="51"/>
<rectangle x1="-7.874" y1="-1.524" x2="-7.366" y2="-1.016" layer="51"/>
<rectangle x1="-2.794" y1="-1.524" x2="-2.286" y2="-1.016" layer="51"/>
<rectangle x1="2.286" y1="-1.524" x2="2.794" y2="-1.016" layer="51"/>
<rectangle x1="-0.254" y1="-1.524" x2="0.254" y2="-1.016" layer="51"/>
</package>
</packages>
<symbols>
<symbol name="14P">
<wire x1="3.81" y1="-10.16" x2="-3.81" y2="-10.16" width="0.4064" layer="94"/>
<wire x1="-3.81" y1="10.16" x2="-3.81" y2="-10.16" width="0.4064" layer="94"/>
<wire x1="-3.81" y1="10.16" x2="3.81" y2="10.16" width="0.4064" layer="94"/>
<wire x1="3.81" y1="-10.16" x2="3.81" y2="10.16" width="0.4064" layer="94"/>
<wire x1="2.54" y1="5.08" x2="3.175" y2="5.08" width="0.1524" layer="94"/>
<wire x1="1.27" y1="2.54" x2="2.54" y2="2.54" width="0.6096" layer="94"/>
<wire x1="1.27" y1="0" x2="2.54" y2="0" width="0.6096" layer="94"/>
<wire x1="1.27" y1="-2.54" x2="2.54" y2="-2.54" width="0.6096" layer="94"/>
<wire x1="1.27" y1="-5.08" x2="2.54" y2="-5.08" width="0.6096" layer="94"/>
<wire x1="1.27" y1="-7.62" x2="2.54" y2="-7.62" width="0.6096" layer="94"/>
<wire x1="-2.54" y1="2.54" x2="-1.27" y2="2.54" width="0.6096" layer="94"/>
<wire x1="-2.54" y1="0" x2="-1.27" y2="0" width="0.6096" layer="94"/>
<wire x1="-2.54" y1="-2.54" x2="-1.27" y2="-2.54" width="0.6096" layer="94"/>
<wire x1="-2.54" y1="-5.08" x2="-1.27" y2="-5.08" width="0.6096" layer="94"/>
<wire x1="-2.54" y1="-7.62" x2="-1.27" y2="-7.62" width="0.6096" layer="94"/>
<wire x1="1.27" y1="5.08" x2="2.54" y2="5.08" width="0.6096" layer="94"/>
<wire x1="1.27" y1="7.62" x2="2.54" y2="7.62" width="0.6096" layer="94"/>
<wire x1="-2.54" y1="5.08" x2="-1.27" y2="5.08" width="0.6096" layer="94"/>
<wire x1="-2.54" y1="7.62" x2="-1.27" y2="7.62" width="0.6096" layer="94"/>
<text x="-3.81" y="-12.7" size="1.778" layer="96">&gt;VALUE</text>
<text x="-3.81" y="10.922" size="1.778" layer="95">&gt;NAME</text>
<pin name="1" x="7.62" y="-7.62" visible="pad" length="middle" direction="pas" rot="R180"/>
<pin name="3" x="7.62" y="-5.08" visible="pad" length="middle" direction="pas" rot="R180"/>
<pin name="5" x="7.62" y="-2.54" visible="pad" length="middle" direction="pas" rot="R180"/>
<pin name="7" x="7.62" y="0" visible="pad" length="middle" direction="pas" rot="R180"/>
<pin name="9" x="7.62" y="2.54" visible="pad" length="middle" direction="pas" rot="R180"/>
<pin name="11" x="7.62" y="5.08" visible="pad" length="middle" direction="pas" rot="R180"/>
<pin name="13" x="7.62" y="7.62" visible="pad" length="middle" direction="pas" rot="R180"/>
<pin name="2" x="-7.62" y="-7.62" visible="pad" length="middle" direction="pas"/>
<pin name="4" x="-7.62" y="-5.08" visible="pad" length="middle" direction="pas"/>
<pin name="6" x="-7.62" y="-2.54" visible="pad" length="middle" direction="pas"/>
<pin name="12" x="-7.62" y="5.08" visible="pad" length="middle" direction="pas"/>
<pin name="14" x="-7.62" y="7.62" visible="pad" length="middle" direction="pas"/>
<pin name="8" x="-7.62" y="0" visible="pad" length="middle" direction="pas"/>
<pin name="10" x="-7.62" y="2.54" visible="pad" length="middle" direction="pas"/>
</symbol>
</symbols>
<devicesets>
<deviceset name="ML14" prefix="SV" uservalue="yes">
<description>&lt;b&gt;HARTING&lt;/b&gt;</description>
<gates>
<gate name="1" symbol="14P" x="0" y="0"/>
</gates>
<devices>
<device name="" package="ML14">
<connects>
<connect gate="1" pin="1" pad="1"/>
<connect gate="1" pin="10" pad="10"/>
<connect gate="1" pin="11" pad="11"/>
<connect gate="1" pin="12" pad="12"/>
<connect gate="1" pin="13" pad="13"/>
<connect gate="1" pin="14" pad="14"/>
<connect gate="1" pin="2" pad="2"/>
<connect gate="1" pin="3" pad="3"/>
<connect gate="1" pin="4" pad="4"/>
<connect gate="1" pin="5" pad="5"/>
<connect gate="1" pin="6" pad="6"/>
<connect gate="1" pin="7" pad="7"/>
<connect gate="1" pin="8" pad="8"/>
<connect gate="1" pin="9" pad="9"/>
</connects>
<technologies>
<technology name="">
<attribute name="MF" value="" constant="no"/>
<attribute name="MPN" value="" constant="no"/>
<attribute name="OC_FARNELL" value="unknown" constant="no"/>
<attribute name="OC_NEWARK" value="unknown" constant="no"/>
</technology>
</technologies>
</device>
</devices>
</deviceset>
</devicesets>
</library>
<library name="adafruit">
<packages>
<package name="ARDUINO">
<description>&lt;b&gt;Arduino Uno&lt;/b&gt;
&lt;p&gt;
Make a shield with ease, this package has all the named pins as well as the two mounting drill holes and an outline of the USB and DC power connector. The outline is on the DIMENSION layer, so if your board house uses it they will cut the outline to match.</description>
<wire x1="0" y1="0" x2="66.04" y2="0" width="0" layer="20"/>
<wire x1="66.04" y1="0" x2="66.04" y2="2.54" width="0" layer="20"/>
<wire x1="66.04" y1="2.54" x2="68.58" y2="5.08" width="0" layer="20"/>
<wire x1="68.58" y1="5.08" x2="68.58" y2="37.846" width="0" layer="20"/>
<wire x1="68.58" y1="37.846" x2="66.04" y2="40.386" width="0" layer="20"/>
<wire x1="66.04" y1="40.386" x2="66.04" y2="51.816" width="0" layer="20"/>
<wire x1="66.04" y1="51.816" x2="64.516" y2="53.34" width="0" layer="20"/>
<wire x1="64.516" y1="53.34" x2="0" y2="53.34" width="0" layer="20"/>
<wire x1="9.144" y1="31.75" x2="9.144" y2="44.45" width="0" layer="52"/>
<wire x1="9.144" y1="44.45" x2="-6.604" y2="44.45" width="0" layer="52"/>
<wire x1="-6.604" y1="44.45" x2="-6.604" y2="31.75" width="0" layer="52"/>
<wire x1="-6.604" y1="31.75" x2="9.144" y2="31.75" width="0" layer="52"/>
<wire x1="0" y1="53.34" x2="0" y2="0" width="0" layer="20"/>
<wire x1="-1.778" y1="3.81" x2="12.192" y2="3.81" width="0" layer="52"/>
<wire x1="12.192" y1="3.81" x2="12.192" y2="12.7" width="0" layer="52"/>
<wire x1="12.192" y1="12.7" x2="-1.778" y2="12.7" width="0" layer="52"/>
<wire x1="-1.778" y1="12.7" x2="-1.778" y2="3.81" width="0" layer="52"/>
<pad name="D4" x="53.34" y="50.8" drill="1" diameter="1.6764" shape="octagon"/>
<pad name="A0" x="50.8" y="2.54" drill="1" diameter="1.6764" shape="octagon"/>
<pad name="D3" x="55.88" y="50.8" drill="1" diameter="1.6764" shape="octagon"/>
<pad name="D2" x="58.42" y="50.8" drill="1" diameter="1.6764" shape="octagon"/>
<pad name="D1" x="60.96" y="50.8" drill="1" diameter="1.6764" shape="octagon"/>
<pad name="D0" x="63.5" y="50.8" drill="1" diameter="1.6764" shape="octagon"/>
<pad name="D5" x="50.8" y="50.8" drill="1" diameter="1.6764" shape="octagon"/>
<pad name="D6" x="48.26" y="50.8" drill="1" diameter="1.6764" shape="octagon"/>
<pad name="D7" x="45.72" y="50.8" drill="1" diameter="1.6764" shape="octagon"/>
<pad name="D8" x="41.656" y="50.8" drill="1" diameter="1.6764" shape="octagon"/>
<pad name="D9" x="39.116" y="50.8" drill="1" diameter="1.6764" shape="octagon"/>
<pad name="D10" x="36.576" y="50.8" drill="1" diameter="1.6764" shape="octagon"/>
<pad name="D11" x="34.036" y="50.8" drill="1" diameter="1.6764" shape="octagon"/>
<pad name="D12" x="31.496" y="50.8" drill="1" diameter="1.6764" shape="octagon"/>
<pad name="D13" x="28.956" y="50.8" drill="1" diameter="1.6764" shape="octagon"/>
<pad name="GND" x="26.416" y="50.8" drill="1" diameter="1.6764" shape="octagon"/>
<pad name="AREF" x="23.876" y="50.8" drill="1" diameter="1.6764" shape="octagon"/>
<pad name="A1" x="53.34" y="2.54" drill="1" diameter="1.6764" shape="octagon"/>
<pad name="A2" x="55.88" y="2.54" drill="1" diameter="1.6764" shape="octagon"/>
<pad name="A3" x="58.42" y="2.54" drill="1" diameter="1.6764" shape="octagon"/>
<pad name="A4" x="60.96" y="2.54" drill="1" diameter="1.6764" shape="octagon"/>
<pad name="A5" x="63.5" y="2.54" drill="1" diameter="1.6764" shape="octagon"/>
<pad name="VIN" x="45.72" y="2.54" drill="1" diameter="1.6764" shape="octagon"/>
<pad name="GND1" x="43.18" y="2.54" drill="1" diameter="1.6764" shape="octagon"/>
<pad name="GND2" x="40.64" y="2.54" drill="1" diameter="1.6764" shape="octagon"/>
<pad name="5V" x="38.1" y="2.54" drill="1" diameter="1.6764" shape="octagon"/>
<pad name="3V" x="35.56" y="2.54" drill="1" diameter="1.6764" shape="octagon"/>
<pad name="RESET" x="33.02" y="2.54" drill="1" diameter="1.6764" shape="octagon"/>
<text x="31.2319" y="3.81" size="1.016" layer="21" font="vector">RST</text>
<text x="34.7523" y="3.81" size="1.016" layer="21" font="vector">3v</text>
<text x="37.5463" y="3.81" size="1.016" layer="21" font="vector">5v</text>
<text x="40.7771" y="3.81" size="1.016" layer="21" font="vector">Gnd</text>
<text x="44.7853" y="3.81" size="1.016" layer="21" font="vector">Vin</text>
<text x="54.1121" y="0.4623" size="1.016" layer="21" font="vector">Analog In</text>
<text x="50.419" y="3.81" size="1.016" layer="21" font="vector">0</text>
<text x="52.959" y="3.81" size="1.016" layer="21" font="vector">1</text>
<text x="55.499" y="3.81" size="1.016" layer="21" font="vector">2</text>
<text x="58.039" y="3.81" size="1.016" layer="21" font="vector">3</text>
<text x="60.579" y="3.81" size="1.016" layer="21" font="vector">4</text>
<text x="63.119" y="3.81" size="1.016" layer="21" font="vector">5</text>
<text x="24.765" y="49.53" size="1.016" layer="21" font="vector" rot="R180">ARef</text>
<text x="27.94" y="49.53" size="1.016" layer="21" font="vector" rot="R180">gnd</text>
<text x="30.099" y="49.53" size="1.016" layer="21" font="vector" rot="R180">13</text>
<text x="32.639" y="49.53" size="1.016" layer="21" font="vector" rot="R180">12</text>
<text x="35.179" y="49.53" size="1.016" layer="21" font="vector" rot="R180">11</text>
<text x="37.719" y="49.53" size="1.016" layer="21" font="vector" rot="R180">10</text>
<text x="39.751" y="49.53" size="1.016" layer="21" font="vector" rot="R180">9</text>
<text x="42.291" y="49.53" size="1.016" layer="21" font="vector" rot="R180">8</text>
<text x="46.355" y="49.53" size="1.016" layer="21" font="vector" rot="R180">7</text>
<text x="48.895" y="49.53" size="1.016" layer="21" font="vector" rot="R180">6</text>
<text x="51.435" y="49.53" size="1.016" layer="21" font="vector" rot="R180">5</text>
<text x="53.975" y="49.53" size="1.016" layer="21" font="vector" rot="R180">4</text>
<text x="56.515" y="49.53" size="1.016" layer="21" font="vector" rot="R180">3</text>
<text x="59.055" y="49.53" size="1.016" layer="21" font="vector" rot="R180">2</text>
<text x="61.595" y="49.53" size="1.016" layer="21" font="vector" rot="R180">1</text>
<text x="64.135" y="49.53" size="1.016" layer="21" font="vector" rot="R180">0</text>
<text x="31.623" y="52.07" size="1.016" layer="21" font="vector">Digital I/O</text>
<text x="50.927" y="52.07" size="1.016" layer="21" font="vector">Digital I/O</text>
<hole x="15.24" y="50.8" drill="3.2"/>
<hole x="66.04" y="35.56" drill="3.2"/>
<hole x="13.97" y="2.54" drill="3.2"/>
</package>
<package name="ARDUINO-BPLACE">
<wire x1="0" y1="0" x2="66.04" y2="0" width="0" layer="22"/>
<wire x1="66.04" y1="0" x2="66.04" y2="2.54" width="0" layer="22"/>
<wire x1="66.04" y1="2.54" x2="68.58" y2="5.08" width="0" layer="22"/>
<wire x1="68.58" y1="5.08" x2="68.58" y2="37.846" width="0" layer="22"/>
<wire x1="68.58" y1="37.846" x2="66.04" y2="40.386" width="0" layer="22"/>
<wire x1="66.04" y1="40.386" x2="66.04" y2="51.816" width="0" layer="22"/>
<wire x1="66.04" y1="51.816" x2="64.516" y2="53.34" width="0" layer="22"/>
<wire x1="64.516" y1="53.34" x2="0" y2="53.34" width="0" layer="22"/>
<wire x1="9.144" y1="31.75" x2="9.144" y2="44.45" width="0" layer="22"/>
<wire x1="9.144" y1="44.45" x2="-6.604" y2="44.45" width="0" layer="22"/>
<wire x1="-6.604" y1="44.45" x2="-6.604" y2="31.75" width="0" layer="22"/>
<wire x1="-6.604" y1="31.75" x2="9.144" y2="31.75" width="0" layer="22"/>
<wire x1="0" y1="53.34" x2="0" y2="0" width="0" layer="22"/>
<wire x1="-1.778" y1="3.81" x2="12.192" y2="3.81" width="0" layer="22"/>
<wire x1="12.192" y1="3.81" x2="12.192" y2="12.7" width="0" layer="22"/>
<wire x1="12.192" y1="12.7" x2="-1.778" y2="12.7" width="0" layer="22"/>
<wire x1="-1.778" y1="12.7" x2="-1.778" y2="3.81" width="0" layer="22"/>
<pad name="D4" x="53.34" y="50.8" drill="1" diameter="1.6764" shape="octagon"/>
<pad name="A0" x="50.8" y="2.54" drill="1" diameter="1.6764" shape="octagon"/>
<pad name="D3" x="55.88" y="50.8" drill="1" diameter="1.6764" shape="octagon"/>
<pad name="D2" x="58.42" y="50.8" drill="1" diameter="1.6764" shape="octagon"/>
<pad name="D1" x="60.96" y="50.8" drill="1" diameter="1.6764" shape="octagon"/>
<pad name="D0" x="63.5" y="50.8" drill="1" diameter="1.6764" shape="octagon"/>
<pad name="D5" x="50.8" y="50.8" drill="1" diameter="1.6764" shape="octagon"/>
<pad name="D6" x="48.26" y="50.8" drill="1" diameter="1.6764" shape="octagon"/>
<pad name="D7" x="45.72" y="50.8" drill="1" diameter="1.6764" shape="octagon"/>
<pad name="D8" x="41.656" y="50.8" drill="1" diameter="1.6764" shape="octagon"/>
<pad name="D9" x="39.116" y="50.8" drill="1" diameter="1.6764" shape="octagon"/>
<pad name="D10" x="36.576" y="50.8" drill="1" diameter="1.6764" shape="octagon"/>
<pad name="D11" x="34.036" y="50.8" drill="1" diameter="1.6764" shape="octagon"/>
<pad name="D12" x="31.496" y="50.8" drill="1" diameter="1.6764" shape="octagon"/>
<pad name="D13" x="28.956" y="50.8" drill="1" diameter="1.6764" shape="octagon"/>
<pad name="GND" x="26.416" y="50.8" drill="1" diameter="1.6764" shape="octagon"/>
<pad name="AREF" x="23.876" y="50.8" drill="1" diameter="1.6764" shape="octagon"/>
<pad name="A1" x="53.34" y="2.54" drill="1" diameter="1.6764" shape="octagon"/>
<pad name="A2" x="55.88" y="2.54" drill="1" diameter="1.6764" shape="octagon"/>
<pad name="A3" x="58.42" y="2.54" drill="1" diameter="1.6764" shape="octagon"/>
<pad name="A4" x="60.96" y="2.54" drill="1" diameter="1.6764" shape="octagon"/>
<pad name="A5" x="63.5" y="2.54" drill="1" diameter="1.6764" shape="octagon"/>
<pad name="VIN" x="45.72" y="2.54" drill="1" diameter="1.6764" shape="octagon"/>
<pad name="GND1" x="43.18" y="2.54" drill="1" diameter="1.6764" shape="octagon"/>
<pad name="GND2" x="40.64" y="2.54" drill="1" diameter="1.6764" shape="octagon"/>
<pad name="5V" x="38.1" y="2.54" drill="1" diameter="1.6764" shape="octagon"/>
<pad name="3V" x="35.56" y="2.54" drill="1" diameter="1.6764" shape="octagon"/>
<pad name="RESET" x="33.02" y="2.54" drill="1" diameter="1.6764" shape="octagon"/>
<text x="31.2319" y="3.81" size="1.016" layer="21" font="vector">RST</text>
<text x="34.7523" y="3.81" size="1.016" layer="21" font="vector">3v</text>
<text x="37.5463" y="3.81" size="1.016" layer="21" font="vector">5v</text>
<text x="40.7771" y="3.81" size="1.016" layer="21" font="vector">Gnd</text>
<text x="44.7853" y="3.81" size="1.016" layer="21" font="vector">Vin</text>
<text x="54.1121" y="0.4623" size="1.016" layer="21" font="vector">Analog In</text>
<text x="50.419" y="3.81" size="1.016" layer="21" font="vector">0</text>
<text x="52.959" y="3.81" size="1.016" layer="21" font="vector">1</text>
<text x="55.499" y="3.81" size="1.016" layer="21" font="vector">2</text>
<text x="58.039" y="3.81" size="1.016" layer="21" font="vector">3</text>
<text x="60.579" y="3.81" size="1.016" layer="21" font="vector">4</text>
<text x="63.119" y="3.81" size="1.016" layer="21" font="vector">5</text>
<text x="24.765" y="49.53" size="1.016" layer="21" font="vector" rot="R180">ARef</text>
<text x="27.94" y="49.53" size="1.016" layer="21" font="vector" rot="R180">gnd</text>
<text x="30.099" y="49.53" size="1.016" layer="21" font="vector" rot="R180">13</text>
<text x="32.639" y="49.53" size="1.016" layer="21" font="vector" rot="R180">12</text>
<text x="35.179" y="49.53" size="1.016" layer="21" font="vector" rot="R180">11</text>
<text x="37.719" y="49.53" size="1.016" layer="21" font="vector" rot="R180">10</text>
<text x="39.751" y="49.53" size="1.016" layer="21" font="vector" rot="R180">9</text>
<text x="42.291" y="49.53" size="1.016" layer="21" font="vector" rot="R180">8</text>
<text x="46.355" y="49.53" size="1.016" layer="21" font="vector" rot="R180">7</text>
<text x="48.895" y="49.53" size="1.016" layer="21" font="vector" rot="R180">6</text>
<text x="51.435" y="49.53" size="1.016" layer="21" font="vector" rot="R180">5</text>
<text x="53.975" y="49.53" size="1.016" layer="21" font="vector" rot="R180">4</text>
<text x="56.515" y="49.53" size="1.016" layer="21" font="vector" rot="R180">3</text>
<text x="59.055" y="49.53" size="1.016" layer="21" font="vector" rot="R180">2</text>
<text x="61.595" y="49.53" size="1.016" layer="21" font="vector" rot="R180">1</text>
<text x="64.135" y="49.53" size="1.016" layer="21" font="vector" rot="R180">0</text>
<text x="31.623" y="52.07" size="1.016" layer="21" font="vector">Digital I/O</text>
<text x="50.927" y="52.07" size="1.016" layer="21" font="vector">Digital I/O</text>
<hole x="15.24" y="50.8" drill="3.2"/>
<hole x="66.04" y="35.56" drill="3.2"/>
<hole x="13.97" y="2.54" drill="3.2"/>
</package>
<package name="ARDUINO-NOHOLE">
<wire x1="0" y1="0" x2="66.04" y2="0" width="0" layer="22"/>
<wire x1="66.04" y1="0" x2="66.04" y2="2.54" width="0" layer="22"/>
<wire x1="66.04" y1="2.54" x2="68.58" y2="5.08" width="0" layer="22"/>
<wire x1="68.58" y1="5.08" x2="68.58" y2="37.846" width="0" layer="22"/>
<wire x1="68.58" y1="37.846" x2="66.04" y2="40.386" width="0" layer="22"/>
<wire x1="66.04" y1="40.386" x2="66.04" y2="51.816" width="0" layer="22"/>
<wire x1="66.04" y1="51.816" x2="64.516" y2="53.34" width="0" layer="22"/>
<wire x1="64.516" y1="53.34" x2="0" y2="53.34" width="0" layer="22"/>
<wire x1="9.144" y1="31.75" x2="9.144" y2="44.45" width="0" layer="22"/>
<wire x1="9.144" y1="44.45" x2="-6.604" y2="44.45" width="0" layer="22"/>
<wire x1="-6.604" y1="44.45" x2="-6.604" y2="31.75" width="0" layer="22"/>
<wire x1="-6.604" y1="31.75" x2="9.144" y2="31.75" width="0" layer="22"/>
<wire x1="0" y1="53.34" x2="0" y2="0" width="0" layer="22"/>
<wire x1="-1.778" y1="3.81" x2="12.192" y2="3.81" width="0" layer="22"/>
<wire x1="12.192" y1="3.81" x2="12.192" y2="12.7" width="0" layer="22"/>
<wire x1="12.192" y1="12.7" x2="-1.778" y2="12.7" width="0" layer="22"/>
<wire x1="-1.778" y1="12.7" x2="-1.778" y2="3.81" width="0" layer="22"/>
<pad name="D4" x="53.34" y="50.8" drill="1" diameter="1.6764" shape="octagon"/>
<pad name="A0" x="50.8" y="2.54" drill="1" diameter="1.6764" shape="octagon"/>
<pad name="D3" x="55.88" y="50.8" drill="1" diameter="1.6764" shape="octagon"/>
<pad name="D2" x="58.42" y="50.8" drill="1" diameter="1.6764" shape="octagon"/>
<pad name="D1" x="60.96" y="50.8" drill="1" diameter="1.6764" shape="octagon"/>
<pad name="D0" x="63.5" y="50.8" drill="1" diameter="1.6764" shape="octagon"/>
<pad name="D5" x="50.8" y="50.8" drill="1" diameter="1.6764" shape="octagon"/>
<pad name="D6" x="48.26" y="50.8" drill="1" diameter="1.6764" shape="octagon"/>
<pad name="D7" x="45.72" y="50.8" drill="1" diameter="1.6764" shape="octagon"/>
<pad name="D8" x="41.656" y="50.8" drill="1" diameter="1.6764" shape="octagon"/>
<pad name="D9" x="39.116" y="50.8" drill="1" diameter="1.6764" shape="octagon"/>
<pad name="D10" x="36.576" y="50.8" drill="1" diameter="1.6764" shape="octagon"/>
<pad name="D11" x="34.036" y="50.8" drill="1" diameter="1.6764" shape="octagon"/>
<pad name="D12" x="31.496" y="50.8" drill="1" diameter="1.6764" shape="octagon"/>
<pad name="D13" x="28.956" y="50.8" drill="1" diameter="1.6764" shape="octagon"/>
<pad name="GND" x="26.416" y="50.8" drill="1" diameter="1.6764" shape="octagon"/>
<pad name="AREF" x="23.876" y="50.8" drill="1" diameter="1.6764" shape="octagon"/>
<pad name="A1" x="53.34" y="2.54" drill="1" diameter="1.6764" shape="octagon"/>
<pad name="A2" x="55.88" y="2.54" drill="1" diameter="1.6764" shape="octagon"/>
<pad name="A3" x="58.42" y="2.54" drill="1" diameter="1.6764" shape="octagon"/>
<pad name="A4" x="60.96" y="2.54" drill="1" diameter="1.6764" shape="octagon"/>
<pad name="A5" x="63.5" y="2.54" drill="1" diameter="1.6764" shape="octagon"/>
<pad name="VIN" x="45.72" y="2.54" drill="1" diameter="1.6764" shape="octagon"/>
<pad name="GND1" x="43.18" y="2.54" drill="1" diameter="1.6764" shape="octagon"/>
<pad name="GND2" x="40.64" y="2.54" drill="1" diameter="1.6764" shape="octagon"/>
<pad name="5V" x="38.1" y="2.54" drill="1" diameter="1.6764" shape="octagon"/>
<pad name="3V" x="35.56" y="2.54" drill="1" diameter="1.6764" shape="octagon"/>
<pad name="RESET" x="33.02" y="2.54" drill="1" diameter="1.6764" shape="octagon"/>
<text x="31.2319" y="3.81" size="1.016" layer="21" font="vector">RST</text>
<text x="34.7523" y="3.81" size="1.016" layer="21" font="vector">3v</text>
<text x="37.5463" y="3.81" size="1.016" layer="21" font="vector">5v</text>
<text x="40.7771" y="3.81" size="1.016" layer="21" font="vector">Gnd</text>
<text x="44.7853" y="3.81" size="1.016" layer="21" font="vector">Vin</text>
<text x="54.1121" y="0.4623" size="1.016" layer="21" font="vector">Analog In</text>
<text x="50.419" y="3.81" size="1.016" layer="21" font="vector">0</text>
<text x="52.959" y="3.81" size="1.016" layer="21" font="vector">1</text>
<text x="55.499" y="3.81" size="1.016" layer="21" font="vector">2</text>
<text x="58.039" y="3.81" size="1.016" layer="21" font="vector">3</text>
<text x="60.579" y="3.81" size="1.016" layer="21" font="vector">4</text>
<text x="63.119" y="3.81" size="1.016" layer="21" font="vector">5</text>
<text x="24.765" y="49.53" size="1.016" layer="21" font="vector" rot="R180">ARef</text>
<text x="27.94" y="49.53" size="1.016" layer="21" font="vector" rot="R180">gnd</text>
<text x="30.099" y="49.53" size="1.016" layer="21" font="vector" rot="R180">13</text>
<text x="32.639" y="49.53" size="1.016" layer="21" font="vector" rot="R180">12</text>
<text x="35.179" y="49.53" size="1.016" layer="21" font="vector" rot="R180">11</text>
<text x="37.719" y="49.53" size="1.016" layer="21" font="vector" rot="R180">10</text>
<text x="39.751" y="49.53" size="1.016" layer="21" font="vector" rot="R180">9</text>
<text x="42.291" y="49.53" size="1.016" layer="21" font="vector" rot="R180">8</text>
<text x="46.355" y="49.53" size="1.016" layer="21" font="vector" rot="R180">7</text>
<text x="48.895" y="49.53" size="1.016" layer="21" font="vector" rot="R180">6</text>
<text x="51.435" y="49.53" size="1.016" layer="21" font="vector" rot="R180">5</text>
<text x="53.975" y="49.53" size="1.016" layer="21" font="vector" rot="R180">4</text>
<text x="56.515" y="49.53" size="1.016" layer="21" font="vector" rot="R180">3</text>
<text x="59.055" y="49.53" size="1.016" layer="21" font="vector" rot="R180">2</text>
<text x="61.595" y="49.53" size="1.016" layer="21" font="vector" rot="R180">1</text>
<text x="64.135" y="49.53" size="1.016" layer="21" font="vector" rot="R180">0</text>
<text x="31.623" y="52.07" size="1.016" layer="21" font="vector">Digital I/O</text>
<text x="50.927" y="52.07" size="1.016" layer="21" font="vector">Digital I/O</text>
</package>
<package name="ARDUINO-NODIM">
<wire x1="0" y1="0" x2="66.04" y2="0" width="0" layer="52"/>
<wire x1="66.04" y1="0" x2="66.04" y2="2.54" width="0" layer="52"/>
<wire x1="66.04" y1="2.54" x2="68.58" y2="5.08" width="0" layer="52"/>
<wire x1="68.58" y1="5.08" x2="68.58" y2="37.846" width="0" layer="52"/>
<wire x1="68.58" y1="37.846" x2="66.04" y2="40.386" width="0" layer="52"/>
<wire x1="66.04" y1="40.386" x2="66.04" y2="51.816" width="0" layer="52"/>
<wire x1="66.04" y1="51.816" x2="64.516" y2="53.34" width="0" layer="52"/>
<wire x1="64.516" y1="53.34" x2="0" y2="53.34" width="0" layer="52"/>
<wire x1="9.144" y1="31.75" x2="9.144" y2="44.45" width="0" layer="52"/>
<wire x1="9.144" y1="44.45" x2="-6.604" y2="44.45" width="0" layer="52"/>
<wire x1="-6.604" y1="44.45" x2="-6.604" y2="31.75" width="0" layer="52"/>
<wire x1="-6.604" y1="31.75" x2="9.144" y2="31.75" width="0" layer="52"/>
<wire x1="0" y1="53.34" x2="0" y2="0" width="0" layer="52"/>
<wire x1="-1.778" y1="3.81" x2="12.192" y2="3.81" width="0" layer="52"/>
<wire x1="12.192" y1="3.81" x2="12.192" y2="12.7" width="0" layer="52"/>
<wire x1="12.192" y1="12.7" x2="-1.778" y2="12.7" width="0" layer="52"/>
<wire x1="-1.778" y1="12.7" x2="-1.778" y2="3.81" width="0" layer="52"/>
<pad name="D4" x="53.34" y="50.8" drill="1" diameter="1.6764" shape="octagon"/>
<pad name="A0" x="50.8" y="2.54" drill="1" diameter="1.6764" shape="octagon"/>
<pad name="D3" x="55.88" y="50.8" drill="1" diameter="1.6764" shape="octagon"/>
<pad name="D2" x="58.42" y="50.8" drill="1" diameter="1.6764" shape="octagon"/>
<pad name="D1" x="60.96" y="50.8" drill="1" diameter="1.6764" shape="octagon"/>
<pad name="D0" x="63.5" y="50.8" drill="1" diameter="1.6764" shape="octagon"/>
<pad name="D5" x="50.8" y="50.8" drill="1" diameter="1.6764" shape="octagon"/>
<pad name="D6" x="48.26" y="50.8" drill="1" diameter="1.6764" shape="octagon"/>
<pad name="D7" x="45.72" y="50.8" drill="1" diameter="1.6764" shape="octagon"/>
<pad name="D8" x="41.656" y="50.8" drill="1" diameter="1.6764" shape="octagon"/>
<pad name="D9" x="39.116" y="50.8" drill="1" diameter="1.6764" shape="octagon"/>
<pad name="D10" x="36.576" y="50.8" drill="1" diameter="1.6764" shape="octagon"/>
<pad name="D11" x="34.036" y="50.8" drill="1" diameter="1.6764" shape="octagon"/>
<pad name="D12" x="31.496" y="50.8" drill="1" diameter="1.6764" shape="octagon"/>
<pad name="D13" x="28.956" y="50.8" drill="1" diameter="1.6764" shape="octagon"/>
<pad name="GND" x="26.416" y="50.8" drill="1" diameter="1.6764" shape="octagon"/>
<pad name="AREF" x="23.876" y="50.8" drill="1" diameter="1.6764" shape="octagon"/>
<pad name="A1" x="53.34" y="2.54" drill="1" diameter="1.6764" shape="octagon"/>
<pad name="A2" x="55.88" y="2.54" drill="1" diameter="1.6764" shape="octagon"/>
<pad name="A3" x="58.42" y="2.54" drill="1" diameter="1.6764" shape="octagon"/>
<pad name="A4" x="60.96" y="2.54" drill="1" diameter="1.6764" shape="octagon"/>
<pad name="A5" x="63.5" y="2.54" drill="1" diameter="1.6764" shape="octagon"/>
<pad name="VIN" x="45.72" y="2.54" drill="1" diameter="1.6764" shape="octagon"/>
<pad name="GND1" x="43.18" y="2.54" drill="1" diameter="1.6764" shape="octagon"/>
<pad name="GND2" x="40.64" y="2.54" drill="1" diameter="1.6764" shape="octagon"/>
<pad name="5V" x="38.1" y="2.54" drill="1" diameter="1.6764" shape="octagon"/>
<pad name="3V" x="35.56" y="2.54" drill="1" diameter="1.6764" shape="octagon"/>
<pad name="RESET" x="33.02" y="2.54" drill="1" diameter="1.6764" shape="octagon"/>
<text x="31.2319" y="3.81" size="1.016" layer="21" font="vector">RST</text>
<text x="34.7523" y="3.81" size="1.016" layer="21" font="vector">3v</text>
<text x="37.5463" y="3.81" size="1.016" layer="21" font="vector">5v</text>
<text x="40.7771" y="3.81" size="1.016" layer="21" font="vector">Gnd</text>
<text x="44.7853" y="3.81" size="1.016" layer="21" font="vector">Vin</text>
<text x="54.1121" y="0.4623" size="1.016" layer="21" font="vector">Analog In</text>
<text x="50.419" y="3.81" size="1.016" layer="21" font="vector">0</text>
<text x="52.959" y="3.81" size="1.016" layer="21" font="vector">1</text>
<text x="55.499" y="3.81" size="1.016" layer="21" font="vector">2</text>
<text x="58.039" y="3.81" size="1.016" layer="21" font="vector">3</text>
<text x="60.579" y="3.81" size="1.016" layer="21" font="vector">4</text>
<text x="63.119" y="3.81" size="1.016" layer="21" font="vector">5</text>
<text x="24.765" y="49.53" size="1.016" layer="21" font="vector" rot="R180">ARef</text>
<text x="27.94" y="49.53" size="1.016" layer="21" font="vector" rot="R180">gnd</text>
<text x="30.099" y="49.53" size="1.016" layer="21" font="vector" rot="R180">13</text>
<text x="32.639" y="49.53" size="1.016" layer="21" font="vector" rot="R180">12</text>
<text x="35.179" y="49.53" size="1.016" layer="21" font="vector" rot="R180">11</text>
<text x="37.719" y="49.53" size="1.016" layer="21" font="vector" rot="R180">10</text>
<text x="39.751" y="49.53" size="1.016" layer="21" font="vector" rot="R180">9</text>
<text x="42.291" y="49.53" size="1.016" layer="21" font="vector" rot="R180">8</text>
<text x="46.355" y="49.53" size="1.016" layer="21" font="vector" rot="R180">7</text>
<text x="48.895" y="49.53" size="1.016" layer="21" font="vector" rot="R180">6</text>
<text x="51.435" y="49.53" size="1.016" layer="21" font="vector" rot="R180">5</text>
<text x="53.975" y="49.53" size="1.016" layer="21" font="vector" rot="R180">4</text>
<text x="56.515" y="49.53" size="1.016" layer="21" font="vector" rot="R180">3</text>
<text x="59.055" y="49.53" size="1.016" layer="21" font="vector" rot="R180">2</text>
<text x="61.595" y="49.53" size="1.016" layer="21" font="vector" rot="R180">1</text>
<text x="64.135" y="49.53" size="1.016" layer="21" font="vector" rot="R180">0</text>
<text x="31.623" y="52.07" size="1.016" layer="21" font="vector">Digital I/O</text>
<text x="50.927" y="52.07" size="1.016" layer="21" font="vector">Digital I/O</text>
<hole x="15.24" y="50.8" drill="3.2"/>
<hole x="66.04" y="35.56" drill="3.2"/>
<hole x="13.97" y="2.54" drill="3.2"/>
</package>
</packages>
<symbols>
<symbol name="ARDUINO">
<wire x1="-22.86" y1="22.86" x2="-22.86" y2="-27.94" width="0.254" layer="94"/>
<wire x1="-22.86" y1="-27.94" x2="35.56" y2="-27.94" width="0.254" layer="94"/>
<wire x1="35.56" y1="-27.94" x2="35.56" y2="-25.4" width="0.254" layer="94"/>
<wire x1="35.56" y1="-25.4" x2="40.64" y2="-20.32" width="0.254" layer="94"/>
<wire x1="40.64" y1="-20.32" x2="40.64" y2="5.08" width="0.254" layer="94"/>
<wire x1="40.64" y1="5.08" x2="35.56" y2="10.16" width="0.254" layer="94"/>
<wire x1="35.56" y1="10.16" x2="35.56" y2="20.32" width="0.254" layer="94"/>
<wire x1="35.56" y1="20.32" x2="33.02" y2="22.86" width="0.254" layer="94"/>
<wire x1="33.02" y1="22.86" x2="-22.86" y2="22.86" width="0.254" layer="94"/>
<text x="-7.62" y="0" size="5.08" layer="94">ARDUINO</text>
<text x="-20.32" y="-5.08" size="2.54" layer="94">Duemilanove</text>
<text x="2.54" y="-5.08" size="2.54" layer="94">Diecimila</text>
<text x="20.32" y="-5.08" size="2.54" layer="94">UNO R1/R2</text>
<pin name="D0" x="30.48" y="27.94" visible="pin" length="middle" rot="R270"/>
<pin name="D1" x="27.94" y="27.94" visible="pin" length="middle" rot="R270"/>
<pin name="D2" x="25.4" y="27.94" visible="pin" length="middle" rot="R270"/>
<pin name="D3" x="22.86" y="27.94" visible="pin" length="middle" rot="R270"/>
<pin name="D4" x="20.32" y="27.94" visible="pin" length="middle" rot="R270"/>
<pin name="D5" x="17.78" y="27.94" visible="pin" length="middle" rot="R270"/>
<pin name="D6" x="15.24" y="27.94" visible="pin" length="middle" rot="R270"/>
<pin name="D7" x="12.7" y="27.94" visible="pin" length="middle" rot="R270"/>
<pin name="D8" x="7.62" y="27.94" visible="pin" length="middle" rot="R270"/>
<pin name="D9" x="5.08" y="27.94" visible="pin" length="middle" rot="R270"/>
<pin name="D10" x="2.54" y="27.94" visible="pin" length="middle" rot="R270"/>
<pin name="D11" x="0" y="27.94" visible="pin" length="middle" rot="R270"/>
<pin name="D12" x="-2.54" y="27.94" visible="pin" length="middle" rot="R270"/>
<pin name="D13" x="-5.08" y="27.94" visible="pin" length="middle" rot="R270"/>
<pin name="GND" x="-7.62" y="27.94" visible="pin" length="middle" direction="pwr" rot="R270"/>
<pin name="AREF" x="-10.16" y="27.94" visible="pin" length="middle" rot="R270"/>
<pin name="A5" x="33.02" y="-33.02" visible="pin" length="middle" rot="R90"/>
<pin name="A4" x="30.48" y="-33.02" visible="pin" length="middle" rot="R90"/>
<pin name="A3" x="27.94" y="-33.02" visible="pin" length="middle" rot="R90"/>
<pin name="A2" x="25.4" y="-33.02" visible="pin" length="middle" rot="R90"/>
<pin name="A1" x="22.86" y="-33.02" visible="pin" length="middle" rot="R90"/>
<pin name="A0" x="20.32" y="-33.02" visible="pin" length="middle" rot="R90"/>
<pin name="VIN" x="15.24" y="-33.02" visible="pin" length="middle" direction="pwr" rot="R90"/>
<pin name="GND1" x="12.7" y="-33.02" visible="pin" length="middle" direction="pwr" rot="R90"/>
<pin name="GND2" x="10.16" y="-33.02" visible="pin" length="middle" direction="pwr" rot="R90"/>
<pin name="5V" x="7.62" y="-33.02" visible="pin" length="middle" direction="pwr" rot="R90"/>
<pin name="3V" x="5.08" y="-33.02" visible="pin" length="middle" direction="pwr" rot="R90"/>
<pin name="/RESET" x="2.54" y="-33.02" visible="pin" length="middle" rot="R90"/>
</symbol>
</symbols>
<devicesets>
<deviceset name="ARDUINO">
<description>&lt;b&gt;Arduino Diecimila/Duemilanove&lt;/b&gt;
&lt;p&gt;
Make a shield with ease, this package has all the named pins as well as the two mounting drill holes and an outline of the USB and DC power connector. The outline is on the DIMENSION layer, so if your board house uses it they will cut the outline to match.
&lt;p&gt;
http://www.ladyada.net/library/pcb/eaglelibrary.html</description>
<gates>
<gate name="G$1" symbol="ARDUINO" x="-7.62" y="2.54"/>
</gates>
<devices>
<device name="UNO" package="ARDUINO">
<connects>
<connect gate="G$1" pin="/RESET" pad="RESET"/>
<connect gate="G$1" pin="3V" pad="3V"/>
<connect gate="G$1" pin="5V" pad="5V"/>
<connect gate="G$1" pin="A0" pad="A0"/>
<connect gate="G$1" pin="A1" pad="A1"/>
<connect gate="G$1" pin="A2" pad="A2"/>
<connect gate="G$1" pin="A3" pad="A3"/>
<connect gate="G$1" pin="A4" pad="A4"/>
<connect gate="G$1" pin="A5" pad="A5"/>
<connect gate="G$1" pin="AREF" pad="AREF"/>
<connect gate="G$1" pin="D0" pad="D0"/>
<connect gate="G$1" pin="D1" pad="D1"/>
<connect gate="G$1" pin="D10" pad="D10"/>
<connect gate="G$1" pin="D11" pad="D11"/>
<connect gate="G$1" pin="D12" pad="D12"/>
<connect gate="G$1" pin="D13" pad="D13"/>
<connect gate="G$1" pin="D2" pad="D2"/>
<connect gate="G$1" pin="D3" pad="D3"/>
<connect gate="G$1" pin="D4" pad="D4"/>
<connect gate="G$1" pin="D5" pad="D5"/>
<connect gate="G$1" pin="D6" pad="D6"/>
<connect gate="G$1" pin="D7" pad="D7"/>
<connect gate="G$1" pin="D8" pad="D8"/>
<connect gate="G$1" pin="D9" pad="D9"/>
<connect gate="G$1" pin="GND" pad="GND"/>
<connect gate="G$1" pin="GND1" pad="GND1"/>
<connect gate="G$1" pin="GND2" pad="GND2"/>
<connect gate="G$1" pin="VIN" pad="VIN"/>
</connects>
<technologies>
<technology name=""/>
</technologies>
</device>
<device name="-BPLACE" package="ARDUINO-BPLACE">
<connects>
<connect gate="G$1" pin="/RESET" pad="RESET"/>
<connect gate="G$1" pin="3V" pad="3V"/>
<connect gate="G$1" pin="5V" pad="5V"/>
<connect gate="G$1" pin="A0" pad="A0"/>
<connect gate="G$1" pin="A1" pad="A1"/>
<connect gate="G$1" pin="A2" pad="A2"/>
<connect gate="G$1" pin="A3" pad="A3"/>
<connect gate="G$1" pin="A4" pad="A4"/>
<connect gate="G$1" pin="A5" pad="A5"/>
<connect gate="G$1" pin="AREF" pad="AREF"/>
<connect gate="G$1" pin="D0" pad="D0"/>
<connect gate="G$1" pin="D1" pad="D1"/>
<connect gate="G$1" pin="D10" pad="D10"/>
<connect gate="G$1" pin="D11" pad="D11"/>
<connect gate="G$1" pin="D12" pad="D12"/>
<connect gate="G$1" pin="D13" pad="D13"/>
<connect gate="G$1" pin="D2" pad="D2"/>
<connect gate="G$1" pin="D3" pad="D3"/>
<connect gate="G$1" pin="D4" pad="D4"/>
<connect gate="G$1" pin="D5" pad="D5"/>
<connect gate="G$1" pin="D6" pad="D6"/>
<connect gate="G$1" pin="D7" pad="D7"/>
<connect gate="G$1" pin="D8" pad="D8"/>
<connect gate="G$1" pin="D9" pad="D9"/>
<connect gate="G$1" pin="GND" pad="GND"/>
<connect gate="G$1" pin="GND1" pad="GND1"/>
<connect gate="G$1" pin="GND2" pad="GND2"/>
<connect gate="G$1" pin="VIN" pad="VIN"/>
</connects>
<technologies>
<technology name=""/>
</technologies>
</device>
<device name="-NOHOLE" package="ARDUINO-NOHOLE">
<connects>
<connect gate="G$1" pin="/RESET" pad="RESET"/>
<connect gate="G$1" pin="3V" pad="3V"/>
<connect gate="G$1" pin="5V" pad="5V"/>
<connect gate="G$1" pin="A0" pad="A0"/>
<connect gate="G$1" pin="A1" pad="A1"/>
<connect gate="G$1" pin="A2" pad="A2"/>
<connect gate="G$1" pin="A3" pad="A3"/>
<connect gate="G$1" pin="A4" pad="A4"/>
<connect gate="G$1" pin="A5" pad="A5"/>
<connect gate="G$1" pin="AREF" pad="AREF"/>
<connect gate="G$1" pin="D0" pad="D0"/>
<connect gate="G$1" pin="D1" pad="D1"/>
<connect gate="G$1" pin="D10" pad="D10"/>
<connect gate="G$1" pin="D11" pad="D11"/>
<connect gate="G$1" pin="D12" pad="D12"/>
<connect gate="G$1" pin="D13" pad="D13"/>
<connect gate="G$1" pin="D2" pad="D2"/>
<connect gate="G$1" pin="D3" pad="D3"/>
<connect gate="G$1" pin="D4" pad="D4"/>
<connect gate="G$1" pin="D5" pad="D5"/>
<connect gate="G$1" pin="D6" pad="D6"/>
<connect gate="G$1" pin="D7" pad="D7"/>
<connect gate="G$1" pin="D8" pad="D8"/>
<connect gate="G$1" pin="D9" pad="D9"/>
<connect gate="G$1" pin="GND" pad="GND"/>
<connect gate="G$1" pin="GND1" pad="GND1"/>
<connect gate="G$1" pin="GND2" pad="GND2"/>
<connect gate="G$1" pin="VIN" pad="VIN"/>
</connects>
<technologies>
<technology name=""/>
</technologies>
</device>
<device name="-NODIM" package="ARDUINO-NODIM">
<connects>
<connect gate="G$1" pin="/RESET" pad="RESET"/>
<connect gate="G$1" pin="3V" pad="3V"/>
<connect gate="G$1" pin="5V" pad="5V"/>
<connect gate="G$1" pin="A0" pad="A0"/>
<connect gate="G$1" pin="A1" pad="A1"/>
<connect gate="G$1" pin="A2" pad="A2"/>
<connect gate="G$1" pin="A3" pad="A3"/>
<connect gate="G$1" pin="A4" pad="A4"/>
<connect gate="G$1" pin="A5" pad="A5"/>
<connect gate="G$1" pin="AREF" pad="AREF"/>
<connect gate="G$1" pin="D0" pad="D0"/>
<connect gate="G$1" pin="D1" pad="D1"/>
<connect gate="G$1" pin="D10" pad="D10"/>
<connect gate="G$1" pin="D11" pad="D11"/>
<connect gate="G$1" pin="D12" pad="D12"/>
<connect gate="G$1" pin="D13" pad="D13"/>
<connect gate="G$1" pin="D2" pad="D2"/>
<connect gate="G$1" pin="D3" pad="D3"/>
<connect gate="G$1" pin="D4" pad="D4"/>
<connect gate="G$1" pin="D5" pad="D5"/>
<connect gate="G$1" pin="D6" pad="D6"/>
<connect gate="G$1" pin="D7" pad="D7"/>
<connect gate="G$1" pin="D8" pad="D8"/>
<connect gate="G$1" pin="D9" pad="D9"/>
<connect gate="G$1" pin="GND" pad="GND"/>
<connect gate="G$1" pin="GND1" pad="GND1"/>
<connect gate="G$1" pin="GND2" pad="GND2"/>
<connect gate="G$1" pin="VIN" pad="VIN"/>
</connects>
<technologies>
<technology name=""/>
</technologies>
</device>
</devices>
</deviceset>
</devicesets>
</library>
<library name="supply1">
<description>&lt;b&gt;Supply Symbols&lt;/b&gt;&lt;p&gt;
 GND, VCC, 0V, +5V, -5V, etc.&lt;p&gt;
 Please keep in mind, that these devices are necessary for the
 automatic wiring of the supply signals.&lt;p&gt;
 The pin name defined in the symbol is identical to the net which is to be wired automatically.&lt;p&gt;
 In this library the device names are the same as the pin names of the symbols, therefore the correct signal names appear next to the supply symbols in the schematic.&lt;p&gt;
 &lt;author&gt;Created by librarian@cadsoft.de&lt;/author&gt;</description>
<packages>
</packages>
<symbols>
<symbol name="VCC">
<wire x1="1.27" y1="-1.905" x2="0" y2="0" width="0.254" layer="94"/>
<wire x1="0" y1="0" x2="-1.27" y2="-1.905" width="0.254" layer="94"/>
<text x="-2.54" y="-2.54" size="1.778" layer="96" rot="R90">&gt;VALUE</text>
<pin name="VCC" x="0" y="-2.54" visible="off" length="short" direction="sup" rot="R90"/>
</symbol>
</symbols>
<devicesets>
<deviceset name="VCC" prefix="P+">
<description>&lt;b&gt;SUPPLY SYMBOL&lt;/b&gt;</description>
<gates>
<gate name="VCC" symbol="VCC" x="0" y="0"/>
</gates>
<devices>
<device name="">
<technologies>
<technology name=""/>
</technologies>
</device>
</devices>
</deviceset>
</devicesets>
</library>
</libraries>
<attributes>
</attributes>
<variantdefs>
</variantdefs>
<classes>
<class number="0" name="default" width="0" drill="0">
</class>
</classes>
<parts>
<part name="LTC2494DEMO" library="con-ml" deviceset="ML14" device="" value="ADC - SPI"/>
<part name="U$1" library="adafruit" deviceset="ARDUINO" device="UNO"/>
<part name="6V" library="supply1" deviceset="VCC" device="" value="6V"/>
</parts>
<sheets>
<sheet>
<plain>
</plain>
<instances>
<instance part="LTC2494DEMO" gate="1" x="15.24" y="60.96"/>
<instance part="U$1" gate="G$1" x="83.82" y="25.4"/>
<instance part="6V" gate="VCC" x="38.1" y="48.26" rot="R270"/>
</instances>
<busses>
</busses>
<nets>
<net name="SCK" class="0">
<segment>
<pinref part="LTC2494DEMO" gate="1" pin="4"/>
<wire x1="0" y1="45.72" x2="0" y2="55.88" width="0.1524" layer="91"/>
<wire x1="0" y1="55.88" x2="7.62" y2="55.88" width="0.1524" layer="91"/>
<label x="0" y="55.88" size="1.778" layer="95"/>
<wire x1="0" y1="45.72" x2="48.26" y2="45.72" width="0.1524" layer="91"/>
<wire x1="48.26" y1="45.72" x2="48.26" y2="55.88" width="0.1524" layer="91"/>
<wire x1="48.26" y1="55.88" x2="78.74" y2="55.88" width="0.1524" layer="91"/>
<pinref part="U$1" gate="G$1" pin="D13"/>
<wire x1="78.74" y1="55.88" x2="78.74" y2="53.34" width="0.1524" layer="91"/>
</segment>
</net>
<net name="MISO" class="0">
<segment>
<pinref part="LTC2494DEMO" gate="1" pin="5"/>
<label x="25.4" y="58.42" size="1.778" layer="95"/>
<wire x1="22.86" y1="58.42" x2="81.28" y2="58.42" width="0.1524" layer="91"/>
<pinref part="U$1" gate="G$1" pin="D12"/>
<wire x1="81.28" y1="58.42" x2="81.28" y2="53.34" width="0.1524" layer="91"/>
</segment>
</net>
<net name="MOSI" class="0">
<segment>
<pinref part="LTC2494DEMO" gate="1" pin="7"/>
<wire x1="83.82" y1="60.96" x2="22.86" y2="60.96" width="0.1524" layer="91"/>
<label x="25.4" y="60.96" size="1.778" layer="95"/>
<pinref part="U$1" gate="G$1" pin="D11"/>
<wire x1="83.82" y1="60.96" x2="83.82" y2="53.34" width="0.1524" layer="91"/>
</segment>
</net>
<net name="CS" class="0">
<segment>
<pinref part="LTC2494DEMO" gate="1" pin="6"/>
<wire x1="-2.54" y1="58.42" x2="7.62" y2="58.42" width="0.1524" layer="91"/>
<label x="0" y="58.42" size="1.778" layer="95"/>
<wire x1="-2.54" y1="58.42" x2="-2.54" y2="81.28" width="0.1524" layer="91"/>
<wire x1="-2.54" y1="81.28" x2="96.52" y2="81.28" width="0.1524" layer="91"/>
<pinref part="U$1" gate="G$1" pin="D7"/>
<wire x1="96.52" y1="81.28" x2="96.52" y2="53.34" width="0.1524" layer="91"/>
</segment>
</net>
<net name="GND" class="0">
<segment>
<pinref part="LTC2494DEMO" gate="1" pin="3"/>
<wire x1="22.86" y1="55.88" x2="45.72" y2="55.88" width="0.1524" layer="91"/>
<wire x1="45.72" y1="55.88" x2="45.72" y2="-12.7" width="0.1524" layer="91"/>
<wire x1="45.72" y1="-12.7" x2="93.98" y2="-12.7" width="0.1524" layer="91"/>
<pinref part="U$1" gate="G$1" pin="GND2"/>
<wire x1="93.98" y1="-12.7" x2="93.98" y2="-7.62" width="0.1524" layer="91"/>
<label x="48.26" y="-12.7" size="1.778" layer="95"/>
<pinref part="LTC2494DEMO" gate="1" pin="13"/>
<wire x1="22.86" y1="68.58" x2="45.72" y2="68.58" width="0.1524" layer="91"/>
<wire x1="45.72" y1="68.58" x2="45.72" y2="55.88" width="0.1524" layer="91"/>
<label x="25.4" y="55.88" size="1.778" layer="95"/>
<label x="25.4" y="68.58" size="1.778" layer="95"/>
<pinref part="LTC2494DEMO" gate="1" pin="8"/>
<wire x1="7.62" y1="60.96" x2="-5.08" y2="60.96" width="0.1524" layer="91"/>
<wire x1="-5.08" y1="60.96" x2="-5.08" y2="-12.7" width="0.1524" layer="91"/>
<wire x1="-5.08" y1="-12.7" x2="45.72" y2="-12.7" width="0.1524" layer="91"/>
<label x="0" y="60.96" size="1.778" layer="95"/>
</segment>
</net>
<net name="5V" class="0">
<segment>
<pinref part="U$1" gate="G$1" pin="5V"/>
<wire x1="91.44" y1="-7.62" x2="91.44" y2="-10.16" width="0.1524" layer="91"/>
<wire x1="91.44" y1="-10.16" x2="2.54" y2="-10.16" width="0.1524" layer="91"/>
<wire x1="2.54" y1="-10.16" x2="2.54" y2="53.34" width="0.1524" layer="91"/>
<pinref part="LTC2494DEMO" gate="1" pin="2"/>
<wire x1="2.54" y1="53.34" x2="7.62" y2="53.34" width="0.1524" layer="91"/>
<label x="2.54" y="53.34" size="1.778" layer="95"/>
</segment>
</net>
<net name="VREF" class="0">
<segment>
<pinref part="LTC2494DEMO" gate="1" pin="1"/>
<pinref part="6V" gate="VCC" pin="VCC"/>
<label x="25.4" y="53.34" size="1.778" layer="95"/>
<wire x1="22.86" y1="53.34" x2="33.02" y2="53.34" width="0.1524" layer="91"/>
<wire x1="33.02" y1="53.34" x2="33.02" y2="48.26" width="0.1524" layer="91"/>
<wire x1="33.02" y1="48.26" x2="35.56" y2="48.26" width="0.1524" layer="91"/>
</segment>
</net>
</nets>
</sheet>
</sheets>
</schematic>
</drawing>
</eagle>
